{
	"id": "fafac0cd-d40a-4fda-adba-f5897351fd6e",
	"name": "47th-demo",
	"description": null,
	"order": [],
	"folders": [
		{
			"name": "Model F",
			"description": "",
			"collectionId": "fafac0cd-d40a-4fda-adba-f5897351fd6e",
			"order": [
				"88cb3ffb-256d-e26f-572c-0e9982e1f656",
				"1d7fd5d2-d31a-f58c-8626-5c0a4dbb531a",
				"0cf3327d-4228-0214-feef-ab8ff2da0422",
				"c83a7001-c1b9-d665-3432-04f04645a1ff",
				"1a8262af-a08a-761c-f295-09def4cea5d1",
				"6d51ec22-2d0b-4168-7ced-0b6a76281aec",
				"726766fc-c875-dad0-c5b9-4e21bc8b831c"
			],
			"owner": "3813103",
			"folders_order": [],
			"id": "9d378c6c-0e00-8ad1-0bd4-aa7a82851ea7"
		}
	],
	"folders_order": [
		"9d378c6c-0e00-8ad1-0bd4-aa7a82851ea7"
	],
	"timestamp": 0,
	"owner": "3813103",
	"public": false,
	"requests": [
		{
			"id": "0cf3327d-4228-0214-feef-ab8ff2da0422",
			"headers": "Content-Type: application/xml\nAuthorization: Token 4p26488\n",
			"headerData": [
				{
					"key": "Content-Type",
					"value": "application/xml",
					"description": "",
					"enabled": true
				},
				{
					"key": "Authorization",
					"value": "Token 4p26488",
					"description": "",
					"enabled": true
				}
			],
			"url": "http://127.0.0.1/47th_demo/Model_f/public/album",
			"folder": "9d378c6c-0e00-8ad1-0bd4-aa7a82851ea7",
			"queryParams": [],
			"preRequestScript": null,
			"pathVariables": {},
			"pathVariableData": [],
			"method": "POST",
			"data": [],
			"dataMode": "raw",
			"version": 2,
			"tests": null,
			"currentHelper": "normal",
			"helperAttributes": {},
			"time": 1525417866048,
			"name": "create album",
			"description": "",
			"collectionId": "fafac0cd-d40a-4fda-adba-f5897351fd6e",
			"responses": [
				{
					"status": "",
					"responseCode": {
						"code": 200,
						"name": "OK",
						"detail": "Standard response for successful HTTP requests. The actual response will depend on the request method used. In a GET request, the response will contain an entity corresponding to the requested resource. In a POST request the response will contain an entity describing or containing the result of the action."
					},
					"time": 177,
					"headers": [
						{
							"name": "cache-control",
							"key": "cache-control",
							"value": "no-cache, private",
							"description": "Tells all caching mechanisms from server to client whether they may cache this object. It is measured in seconds"
						},
						{
							"name": "connection",
							"key": "connection",
							"value": "Keep-Alive",
							"description": "Options that are desired for the connection"
						},
						{
							"name": "content-length",
							"key": "content-length",
							"value": "97",
							"description": "The length of the response body in octets (8-bit bytes)"
						},
						{
							"name": "content-type",
							"key": "content-type",
							"value": "application/xml",
							"description": "The mime type of this content"
						},
						{
							"name": "date",
							"key": "date",
							"value": "Sun, 29 Apr 2018 06:56:57 GMT",
							"description": "The date and time that the message was sent"
						},
						{
							"name": "keep-alive",
							"key": "keep-alive",
							"value": "timeout=5, max=100",
							"description": "Custom header"
						},
						{
							"name": "server",
							"key": "server",
							"value": "Apache/2.4.29 (Win32) OpenSSL/1.0.2n PHP/5.6.34",
							"description": "A name for the server"
						},
						{
							"name": "vary",
							"key": "vary",
							"value": "Authorization",
							"description": "Tells downstream proxies how to match future request headers to decide whether the cached response can be used rather than requesting a fresh one from the origin server."
						},
						{
							"name": "x-powered-by",
							"key": "x-powered-by",
							"value": "PHP/5.6.34",
							"description": "Specifies the technology (ASP.NET, PHP, JBoss, e.g.) supporting the web application (version details are often in X-Runtime, X-Version, or X-AspNet-Version)"
						}
					],
					"cookies": [],
					"mime": "",
					"text": "<?xml version=\"1.0\" encoding=\"utf-8\"?>\n<data type=\"string\" success=\"1\" status=\"200\">52bRT</data>\n",
					"language": "xml",
					"rawDataType": "text",
					"previewType": "text",
					"searchResultScrolledTo": -1,
					"forceNoPretty": false,
					"write": true,
					"empty": false,
					"failed": false,
					"name": "create album",
					"id": "67aed63d-75d8-9307-3040-691ca8fa5831",
					"request": {
						"url": "http://127.0.0.1/47th_demo/Model_f/public/album",
						"pathVariables": {},
						"pathVariableData": [],
						"queryParams": [],
						"headerData": [
							{
								"key": "Content-Type",
								"value": "application/xml",
								"description": "",
								"enabled": true,
								"warning": ""
							},
							{
								"key": "Authorization",
								"value": "Token r1AkG77",
								"description": "",
								"enabled": true,
								"warning": ""
							}
						],
						"headers": "Content-Type: application/xml\nAuthorization: Token r1AkG77\n",
						"data": "<?xml version=\"1.0\" encoding=\"UTF-8\"?>\r\n<data>\r\n <title>相簿名稱</title>\r\n <description>第一個相簿</description>\r\n</data>",
						"method": "POST",
						"dataMode": "raw"
					}
				}
			],
			"rawModeData": "<?xml version=\"1.0\" encoding=\"UTF-8\"?>\r\n<data>\r\n <title>相簿名稱</title>\r\n <description>第一個相簿</description>\r\n</data>"
		},
		{
			"id": "1a8262af-a08a-761c-f295-09def4cea5d1",
			"headers": "Content-Type: application/xml\nAuthorization: Token 4p26488\n",
			"headerData": [
				{
					"key": "Content-Type",
					"value": "application/xml",
					"description": "",
					"enabled": true
				},
				{
					"key": "Authorization",
					"value": "Token 4p26488",
					"description": "",
					"enabled": true
				}
			],
			"url": "http://127.0.0.1/47th_demo/Model_f/public/album/jt88Vm",
			"folder": "9d378c6c-0e00-8ad1-0bd4-aa7a82851ea7",
			"queryParams": [],
			"preRequestScript": null,
			"pathVariables": {},
			"pathVariableData": [],
			"method": "PATCH",
			"data": [],
			"dataMode": "raw",
			"version": 2,
			"tests": null,
			"currentHelper": "normal",
			"helperAttributes": {},
			"time": 1525417910599,
			"name": "edit album",
			"description": "",
			"collectionId": "fafac0cd-d40a-4fda-adba-f5897351fd6e",
			"responses": [
				{
					"status": "",
					"responseCode": {
						"code": 200,
						"name": "OK",
						"detail": "Standard response for successful HTTP requests. The actual response will depend on the request method used. In a GET request, the response will contain an entity corresponding to the requested resource. In a POST request the response will contain an entity describing or containing the result of the action."
					},
					"time": 180,
					"headers": [
						{
							"name": "cache-control",
							"key": "cache-control",
							"value": "no-cache, private",
							"description": "Tells all caching mechanisms from server to client whether they may cache this object. It is measured in seconds"
						},
						{
							"name": "connection",
							"key": "connection",
							"value": "Keep-Alive",
							"description": "Options that are desired for the connection"
						},
						{
							"name": "content-length",
							"key": "content-length",
							"value": "71",
							"description": "The length of the response body in octets (8-bit bytes)"
						},
						{
							"name": "content-type",
							"key": "content-type",
							"value": "application/xml",
							"description": "The mime type of this content"
						},
						{
							"name": "date",
							"key": "date",
							"value": "Sun, 29 Apr 2018 14:39:26 GMT",
							"description": "The date and time that the message was sent"
						},
						{
							"name": "keep-alive",
							"key": "keep-alive",
							"value": "timeout=5, max=100",
							"description": "Custom header"
						},
						{
							"name": "server",
							"key": "server",
							"value": "Apache/2.4.29 (Win32) OpenSSL/1.0.2n PHP/5.6.34",
							"description": "A name for the server"
						},
						{
							"name": "vary",
							"key": "vary",
							"value": "Authorization",
							"description": "Tells downstream proxies how to match future request headers to decide whether the cached response can be used rather than requesting a fresh one from the origin server."
						},
						{
							"name": "x-powered-by",
							"key": "x-powered-by",
							"value": "PHP/5.6.34",
							"description": "Specifies the technology (ASP.NET, PHP, JBoss, e.g.) supporting the web application (version details are often in X-Runtime, X-Version, or X-AspNet-Version)"
						}
					],
					"cookies": [],
					"mime": "",
					"text": "<?xml version=\"1.0\" encoding=\"UTF-8\"?><data success=\"1\" status=\"200\" />",
					"language": "xml",
					"rawDataType": "text",
					"previewType": "text",
					"searchResultScrolledTo": -1,
					"forceNoPretty": false,
					"write": true,
					"empty": false,
					"failed": false,
					"name": "edit album",
					"id": "96015dee-e38c-a879-4896-cbfa1d0a6bea",
					"request": {
						"url": "http://127.0.0.1/47th_demo/Model_f/public/album/s39ZcED8M",
						"pathVariables": {},
						"pathVariableData": [],
						"queryParams": [],
						"headerData": [
							{
								"key": "Content-Type",
								"value": "application/xml",
								"description": "",
								"enabled": true,
								"warning": ""
							},
							{
								"key": "Authorization",
								"value": "Token r1AkG77",
								"description": "",
								"enabled": true,
								"warning": ""
							}
						],
						"headers": "Content-Type: application/xml\nAuthorization: Token r1AkG77\n",
						"data": "<?xml version=\"1.0\" encoding=\"UTF-8\"?>\r\n<data>\r\n <title>相簿名稱</title>\r\n <description>我的第一個相簿-e</description>\r\n</data>\r\n",
						"method": "PATCH",
						"dataMode": "raw"
					}
				}
			],
			"rawModeData": "<?xml version=\"1.0\" encoding=\"UTF-8\"?>\r\n<data>\r\n <title>相簿名稱</title>\r\n <description>我的第一個相簿-e</description>\r\n</data>\r\n"
		},
		{
			"id": "1d7fd5d2-d31a-f58c-8626-5c0a4dbb531a",
			"headers": "Authorization: Token 4p26488\n",
			"headerData": [
				{
					"key": "Authorization",
					"value": "Token 4p26488",
					"description": "",
					"enabled": true
				}
			],
			"url": "http://127.0.0.1/47th_demo/Model_f/public/account/66n1Y4T",
			"folder": "9d378c6c-0e00-8ad1-0bd4-aa7a82851ea7",
			"queryParams": [],
			"preRequestScript": null,
			"pathVariables": {},
			"pathVariableData": [],
			"method": "GET",
			"data": null,
			"dataMode": "params",
			"tests": null,
			"currentHelper": "normal",
			"helperAttributes": {},
			"time": 1525417866864,
			"name": "get account",
			"description": "",
			"collectionId": "fafac0cd-d40a-4fda-adba-f5897351fd6e",
			"responses": [
				{
					"status": "",
					"responseCode": {
						"code": 200,
						"name": "OK",
						"detail": "Standard response for successful HTTP requests. The actual response will depend on the request method used. In a GET request, the response will contain an entity corresponding to the requested resource. In a POST request the response will contain an entity describing or containing the result of the action."
					},
					"time": 153,
					"headers": [
						{
							"name": "cache-control",
							"key": "cache-control",
							"value": "no-cache, private",
							"description": "Tells all caching mechanisms from server to client whether they may cache this object. It is measured in seconds"
						},
						{
							"name": "connection",
							"key": "connection",
							"value": "Keep-Alive",
							"description": "Options that are desired for the connection"
						},
						{
							"name": "content-length",
							"key": "content-length",
							"value": "71",
							"description": "The length of the response body in octets (8-bit bytes)"
						},
						{
							"name": "content-type",
							"key": "content-type",
							"value": "application/xml",
							"description": "The mime type of this content"
						},
						{
							"name": "date",
							"key": "date",
							"value": "Sun, 29 Apr 2018 03:25:58 GMT",
							"description": "The date and time that the message was sent"
						},
						{
							"name": "keep-alive",
							"key": "keep-alive",
							"value": "timeout=5, max=100",
							"description": "Custom header"
						},
						{
							"name": "server",
							"key": "server",
							"value": "Apache/2.4.29 (Win32) OpenSSL/1.0.2n PHP/5.6.34",
							"description": "A name for the server"
						},
						{
							"name": "vary",
							"key": "vary",
							"value": "Authorization",
							"description": "Tells downstream proxies how to match future request headers to decide whether the cached response can be used rather than requesting a fresh one from the origin server."
						},
						{
							"name": "x-powered-by",
							"key": "x-powered-by",
							"value": "PHP/5.6.34",
							"description": "Specifies the technology (ASP.NET, PHP, JBoss, e.g.) supporting the web application (version details are often in X-Runtime, X-Version, or X-AspNet-Version)"
						}
					],
					"cookies": [],
					"mime": "",
					"text": "<?xml version=\"1.0\" encoding=\"UTF-8\"?><data success=\"0\" status=\"404\" />",
					"language": "xml",
					"rawDataType": "text",
					"previewType": "text",
					"searchResultScrolledTo": -1,
					"forceNoPretty": false,
					"write": true,
					"empty": false,
					"failed": false,
					"name": "get account fail",
					"id": "76a025c9-7241-460e-be47-ab435aed2a13",
					"request": {
						"url": "http://127.0.0.1/47th_demo/Model_f/public/account/1",
						"pathVariables": {},
						"pathVariableData": [],
						"queryParams": [],
						"headerData": [
							{
								"key": "Authorization",
								"value": "9z953Ii",
								"description": "",
								"enabled": true,
								"warning": ""
							}
						],
						"headers": "Authorization: 9z953Ii\n",
						"data": null,
						"method": "GET",
						"dataMode": "params"
					}
				},
				{
					"status": "",
					"responseCode": {
						"code": 200,
						"name": "OK",
						"detail": "Standard response for successful HTTP requests. The actual response will depend on the request method used. In a GET request, the response will contain an entity corresponding to the requested resource. In a POST request the response will contain an entity describing or containing the result of the action."
					},
					"time": 207,
					"headers": [
						{
							"name": "cache-control",
							"key": "cache-control",
							"value": "no-cache, private",
							"description": "Tells all caching mechanisms from server to client whether they may cache this object. It is measured in seconds"
						},
						{
							"name": "connection",
							"key": "connection",
							"value": "Keep-Alive",
							"description": "Options that are desired for the connection"
						},
						{
							"name": "content-length",
							"key": "content-length",
							"value": "180",
							"description": "The length of the response body in octets (8-bit bytes)"
						},
						{
							"name": "content-type",
							"key": "content-type",
							"value": "application/xml",
							"description": "The mime type of this content"
						},
						{
							"name": "date",
							"key": "date",
							"value": "Sun, 29 Apr 2018 06:45:50 GMT",
							"description": "The date and time that the message was sent"
						},
						{
							"name": "keep-alive",
							"key": "keep-alive",
							"value": "timeout=5, max=100",
							"description": "Custom header"
						},
						{
							"name": "server",
							"key": "server",
							"value": "Apache/2.4.29 (Win32) OpenSSL/1.0.2n PHP/5.6.34",
							"description": "A name for the server"
						},
						{
							"name": "vary",
							"key": "vary",
							"value": "Authorization",
							"description": "Tells downstream proxies how to match future request headers to decide whether the cached response can be used rather than requesting a fresh one from the origin server."
						},
						{
							"name": "x-powered-by",
							"key": "x-powered-by",
							"value": "PHP/5.6.34",
							"description": "Specifies the technology (ASP.NET, PHP, JBoss, e.g.) supporting the web application (version details are often in X-Runtime, X-Version, or X-AspNet-Version)"
						}
					],
					"cookies": [],
					"mime": "",
					"text": "<?xml version=\"1.0\" encoding=\"utf-8\"?>\n<data type=\"string\" success=\"1\" status=\"200\"><account>joshTest</account><bio>Hello world.</bio><created>1524984260</created><albums/></data>\n",
					"language": "xml",
					"rawDataType": "text",
					"previewType": "text",
					"searchResultScrolledTo": -1,
					"forceNoPretty": false,
					"write": true,
					"empty": false,
					"failed": false,
					"name": "get account success",
					"id": "99a93c24-be06-e12e-47b0-89c3dd2daa62",
					"request": {
						"url": "http://127.0.0.1/47th_demo/Model_f/public/account/wrV9q42",
						"pathVariables": {},
						"pathVariableData": [],
						"queryParams": [],
						"headerData": [
							{
								"key": "Authorization",
								"value": "Token r1AkG77",
								"description": "",
								"enabled": true,
								"warning": ""
							}
						],
						"headers": "Authorization: Token r1AkG77\n",
						"data": null,
						"method": "GET",
						"dataMode": "params"
					}
				}
			]
		},
		{
			"id": "6d51ec22-2d0b-4168-7ced-0b6a76281aec",
			"headers": "Authorization: Token 4p26488\n",
			"headerData": [
				{
					"key": "Authorization",
					"value": "Token 4p26488",
					"description": "",
					"enabled": true
				}
			],
			"url": "http://127.0.0.1/47th_demo/Model_f/public/album/jt88Vm",
			"folder": "9d378c6c-0e00-8ad1-0bd4-aa7a82851ea7",
			"queryParams": [],
			"preRequestScript": null,
			"pathVariables": {},
			"pathVariableData": [],
			"method": "DELETE",
			"data": null,
			"dataMode": "params",
			"version": 2,
			"tests": null,
			"currentHelper": "normal",
			"helperAttributes": {},
			"time": 1525418121647,
			"name": "delete album",
			"description": "",
			"collectionId": "fafac0cd-d40a-4fda-adba-f5897351fd6e",
			"responses": [
				{
					"status": "",
					"responseCode": {
						"code": 200,
						"name": "OK",
						"detail": "Standard response for successful HTTP requests. The actual response will depend on the request method used. In a GET request, the response will contain an entity corresponding to the requested resource. In a POST request the response will contain an entity describing or containing the result of the action."
					},
					"time": 326,
					"headers": [
						{
							"name": "cache-control",
							"key": "cache-control",
							"value": "no-cache, private",
							"description": "Tells all caching mechanisms from server to client whether they may cache this object. It is measured in seconds"
						},
						{
							"name": "connection",
							"key": "connection",
							"value": "Keep-Alive",
							"description": "Options that are desired for the connection"
						},
						{
							"name": "content-length",
							"key": "content-length",
							"value": "0",
							"description": "The length of the response body in octets (8-bit bytes)"
						},
						{
							"name": "content-type",
							"key": "content-type",
							"value": "text/html; charset=UTF-8",
							"description": "The mime type of this content"
						},
						{
							"name": "date",
							"key": "date",
							"value": "Sun, 29 Apr 2018 14:31:59 GMT",
							"description": "The date and time that the message was sent"
						},
						{
							"name": "keep-alive",
							"key": "keep-alive",
							"value": "timeout=5, max=100",
							"description": "Custom header"
						},
						{
							"name": "server",
							"key": "server",
							"value": "Apache/2.4.29 (Win32) OpenSSL/1.0.2n PHP/5.6.34",
							"description": "A name for the server"
						},
						{
							"name": "vary",
							"key": "vary",
							"value": "Authorization",
							"description": "Tells downstream proxies how to match future request headers to decide whether the cached response can be used rather than requesting a fresh one from the origin server."
						},
						{
							"name": "x-powered-by",
							"key": "x-powered-by",
							"value": "PHP/5.6.34",
							"description": "Specifies the technology (ASP.NET, PHP, JBoss, e.g.) supporting the web application (version details are often in X-Runtime, X-Version, or X-AspNet-Version)"
						}
					],
					"cookies": [],
					"mime": "",
					"text": "",
					"language": "html",
					"rawDataType": "text",
					"previewType": "text",
					"searchResultScrolledTo": -1,
					"forceNoPretty": false,
					"write": true,
					"empty": false,
					"failed": false,
					"name": "delete album",
					"id": "ce2ba001-ac29-2915-59be-fc13fa88f644",
					"request": {
						"url": "http://127.0.0.1/47th_demo/Model_f/public/album/52bRT",
						"pathVariables": {},
						"pathVariableData": [],
						"queryParams": [],
						"headerData": [
							{
								"key": "Authorization",
								"value": "Token r1AkG77",
								"description": "",
								"enabled": true,
								"warning": ""
							}
						],
						"headers": "Authorization: Token r1AkG77\n",
						"data": null,
						"method": "DELETE",
						"dataMode": "params"
					}
				}
			]
		},
		{
			"id": "726766fc-c875-dad0-c5b9-4e21bc8b831c",
			"headers": "Authorization: Token 4p26488\n",
			"headerData": [
				{
					"key": "Authorization",
					"value": "Token 4p26488",
					"description": "",
					"enabled": true
				}
			],
			"url": "http://127.0.0.1/47th_demo/Model_f/public/album/jt88Vm/image",
			"folder": "9d378c6c-0e00-8ad1-0bd4-aa7a82851ea7",
			"queryParams": [],
			"preRequestScript": null,
			"pathVariables": {},
			"pathVariableData": [],
			"method": "POST",
			"data": [
				{
					"key": "title",
					"value": "圖片1",
					"description": "",
					"type": "text",
					"enabled": true
				},
				{
					"key": "description",
					"value": "我的第一張圖片",
					"description": "",
					"type": "text",
					"enabled": true
				},
				{
					"key": "image",
					"value": "StockSnap_EAP0KLXBA8.jpg",
					"description": "",
					"type": "file",
					"enabled": true
				}
			],
			"dataMode": "params",
			"tests": null,
			"currentHelper": "normal",
			"helperAttributes": {},
			"time": 1525418033391,
			"name": "upload image",
			"description": "",
			"collectionId": "fafac0cd-d40a-4fda-adba-f5897351fd6e",
			"responses": [
				{
					"status": "",
					"responseCode": {
						"code": 200,
						"name": "OK",
						"detail": "Standard response for successful HTTP requests. The actual response will depend on the request method used. In a GET request, the response will contain an entity corresponding to the requested resource. In a POST request the response will contain an entity describing or containing the result of the action."
					},
					"time": 225,
					"headers": [
						{
							"name": "cache-control",
							"key": "cache-control",
							"value": "no-cache, private",
							"description": "Tells all caching mechanisms from server to client whether they may cache this object. It is measured in seconds"
						},
						{
							"name": "connection",
							"key": "connection",
							"value": "Keep-Alive",
							"description": "Options that are desired for the connection"
						},
						{
							"name": "content-length",
							"key": "content-length",
							"value": "167",
							"description": "The length of the response body in octets (8-bit bytes)"
						},
						{
							"name": "content-type",
							"key": "content-type",
							"value": "application/xml",
							"description": "The mime type of this content"
						},
						{
							"name": "date",
							"key": "date",
							"value": "Sun, 29 Apr 2018 06:59:45 GMT",
							"description": "The date and time that the message was sent"
						},
						{
							"name": "keep-alive",
							"key": "keep-alive",
							"value": "timeout=5, max=100",
							"description": "Custom header"
						},
						{
							"name": "server",
							"key": "server",
							"value": "Apache/2.4.29 (Win32) OpenSSL/1.0.2n PHP/5.6.34",
							"description": "A name for the server"
						},
						{
							"name": "vary",
							"key": "vary",
							"value": "Authorization",
							"description": "Tells downstream proxies how to match future request headers to decide whether the cached response can be used rather than requesting a fresh one from the origin server."
						},
						{
							"name": "x-powered-by",
							"key": "x-powered-by",
							"value": "PHP/5.6.34",
							"description": "Specifies the technology (ASP.NET, PHP, JBoss, e.g.) supporting the web application (version details are often in X-Runtime, X-Version, or X-AspNet-Version)"
						}
					],
					"cookies": [],
					"mime": "",
					"text": "<?xml version=\"1.0\" encoding=\"utf-8\"?>\n<data success=\"1\" status=\"200\"><datetime>1524985185</datetime><width>1400</width><height>765</height><size>285813</size></data>\n",
					"language": "xml",
					"rawDataType": "text",
					"previewType": "text",
					"searchResultScrolledTo": -1,
					"forceNoPretty": false,
					"write": true,
					"empty": false,
					"failed": false,
					"name": "upload image",
					"id": "f505e650-793f-4995-c557-3a48b94214e0",
					"request": {
						"url": "http://127.0.0.1/47th_demo/Model_f/public/album/52bRT/image",
						"pathVariables": {},
						"pathVariableData": [],
						"queryParams": [],
						"headerData": [
							{
								"key": "Authorization",
								"value": "Token r1AkG77",
								"description": "",
								"enabled": true,
								"warning": ""
							}
						],
						"headers": "Authorization: Token r1AkG77\n",
						"data": [
							{
								"key": "title",
								"value": "大頭貼",
								"description": "",
								"type": "text",
								"enabled": true
							},
							{
								"key": "description",
								"value": "我是描述",
								"description": "",
								"type": "text",
								"enabled": true
							},
							{
								"key": "image",
								"value": {
									"0": {}
								},
								"description": "",
								"type": "file",
								"enabled": true
							}
						],
						"method": "POST",
						"dataMode": "params"
					}
				}
			]
		},
		{
			"id": "88cb3ffb-256d-e26f-572c-0e9982e1f656",
			"headers": "Content-Type: application/xml\n",
			"headerData": [
				{
					"key": "Content-Type",
					"value": "application/xml",
					"description": "",
					"enabled": true
				}
			],
			"url": "http://127.0.0.1/47th_demo/Model_f/public/account",
			"queryParams": [],
			"pathVariables": {},
			"pathVariableData": [],
			"preRequestScript": null,
			"method": "POST",
			"collectionId": "fafac0cd-d40a-4fda-adba-f5897351fd6e",
			"data": [],
			"dataMode": "raw",
			"name": "create account",
			"description": "",
			"descriptionFormat": "html",
			"time": 1524972134453,
			"version": 2,
			"responses": [
				{
					"status": "",
					"responseCode": {
						"code": 200,
						"name": "OK",
						"detail": "Standard response for successful HTTP requests. The actual response will depend on the request method used. In a GET request, the response will contain an entity corresponding to the requested resource. In a POST request the response will contain an entity describing or containing the result of the action."
					},
					"time": 1030,
					"headers": [
						{
							"name": "authorization",
							"key": "authorization",
							"value": "Token r1AkG77",
							"description": "Custom header"
						},
						{
							"name": "cache-control",
							"key": "cache-control",
							"value": "no-cache, private",
							"description": "Tells all caching mechanisms from server to client whether they may cache this object. It is measured in seconds"
						},
						{
							"name": "connection",
							"key": "connection",
							"value": "Keep-Alive",
							"description": "Options that are desired for the connection"
						},
						{
							"name": "content-length",
							"key": "content-length",
							"value": "99",
							"description": "The length of the response body in octets (8-bit bytes)"
						},
						{
							"name": "content-type",
							"key": "content-type",
							"value": "application/xml",
							"description": "The mime type of this content"
						},
						{
							"name": "date",
							"key": "date",
							"value": "Sun, 29 Apr 2018 06:44:19 GMT",
							"description": "The date and time that the message was sent"
						},
						{
							"name": "keep-alive",
							"key": "keep-alive",
							"value": "timeout=5, max=100",
							"description": "Custom header"
						},
						{
							"name": "server",
							"key": "server",
							"value": "Apache/2.4.29 (Win32) OpenSSL/1.0.2n PHP/5.6.34",
							"description": "A name for the server"
						},
						{
							"name": "x-powered-by",
							"key": "x-powered-by",
							"value": "PHP/5.6.34",
							"description": "Specifies the technology (ASP.NET, PHP, JBoss, e.g.) supporting the web application (version details are often in X-Runtime, X-Version, or X-AspNet-Version)"
						}
					],
					"cookies": [],
					"mime": "",
					"text": "<?xml version=\"1.0\" encoding=\"utf-8\"?>\n<data type=\"string\" success=\"1\" status=\"200\">wrV9q42</data>\n",
					"language": "xml",
					"rawDataType": "text",
					"previewType": "text",
					"searchResultScrolledTo": -1,
					"forceNoPretty": false,
					"write": true,
					"empty": false,
					"failed": false,
					"name": "create account",
					"id": "04b6c2a7-c312-592c-703b-832aacf25707",
					"request": {
						"url": "http://127.0.0.1/47th_demo/Model_f/public/account",
						"pathVariables": {},
						"pathVariableData": [],
						"queryParams": [],
						"headerData": [
							{
								"key": "Content-Type",
								"value": "application/xml",
								"enabled": true,
								"description": ""
							}
						],
						"headers": "Content-Type: application/xml\n",
						"data": "<?xml version=\"1.0\" encoding=\"UTF-8\"?>\r\n<data>\r\n <account>joshTest</account>\r\n <bio>Hello world.</bio>\r\n</data>",
						"method": "POST",
						"dataMode": "raw"
					}
				}
			],
			"tests": null,
			"currentHelper": "normal",
			"helperAttributes": {},
			"folder": "9d378c6c-0e00-8ad1-0bd4-aa7a82851ea7",
			"rawModeData": "<?xml version=\"1.0\" encoding=\"UTF-8\"?>\r\n<data>\r\n <account>joshTest</account>\r\n <bio>Hello world.</bio>\r\n</data>"
		},
		{
			"id": "c83a7001-c1b9-d665-3432-04f04645a1ff",
			"headers": "Authorization: Token 4p26488\n",
			"headerData": [
				{
					"key": "Authorization",
					"value": "Token 4p26488",
					"description": "",
					"enabled": true
				}
			],
			"url": "http://127.0.0.1/47th_demo/Model_f/public/album/jt88Vm",
			"folder": "9d378c6c-0e00-8ad1-0bd4-aa7a82851ea7",
			"queryParams": [],
			"preRequestScript": null,
			"pathVariables": {},
			"pathVariableData": [],
			"method": "GET",
			"data": null,
			"dataMode": "params",
			"version": 2,
			"tests": null,
			"currentHelper": "normal",
			"helperAttributes": {},
			"time": 1525417878704,
			"name": "get album",
			"description": "",
			"collectionId": "fafac0cd-d40a-4fda-adba-f5897351fd6e",
			"responses": [
				{
					"status": "",
					"responseCode": {
						"code": 200,
						"name": "OK",
						"detail": "Standard response for successful HTTP requests. The actual response will depend on the request method used. In a GET request, the response will contain an entity corresponding to the requested resource. In a POST request the response will contain an entity describing or containing the result of the action."
					},
					"time": 192,
					"headers": [
						{
							"name": "cache-control",
							"key": "cache-control",
							"value": "no-cache, private",
							"description": "Tells all caching mechanisms from server to client whether they may cache this object. It is measured in seconds"
						},
						{
							"name": "connection",
							"key": "connection",
							"value": "Keep-Alive",
							"description": "Options that are desired for the connection"
						},
						{
							"name": "content-length",
							"key": "content-length",
							"value": "572",
							"description": "The length of the response body in octets (8-bit bytes)"
						},
						{
							"name": "content-type",
							"key": "content-type",
							"value": "application/xml",
							"description": "The mime type of this content"
						},
						{
							"name": "date",
							"key": "date",
							"value": "Sun, 29 Apr 2018 07:04:12 GMT",
							"description": "The date and time that the message was sent"
						},
						{
							"name": "keep-alive",
							"key": "keep-alive",
							"value": "timeout=5, max=100",
							"description": "Custom header"
						},
						{
							"name": "server",
							"key": "server",
							"value": "Apache/2.4.29 (Win32) OpenSSL/1.0.2n PHP/5.6.34",
							"description": "A name for the server"
						},
						{
							"name": "vary",
							"key": "vary",
							"value": "Authorization",
							"description": "Tells downstream proxies how to match future request headers to decide whether the cached response can be used rather than requesting a fresh one from the origin server."
						},
						{
							"name": "x-powered-by",
							"key": "x-powered-by",
							"value": "PHP/5.6.34",
							"description": "Specifies the technology (ASP.NET, PHP, JBoss, e.g.) supporting the web application (version details are often in X-Runtime, X-Version, or X-AspNet-Version)"
						}
					],
					"cookies": [],
					"mime": "",
					"text": "<?xml version=\"1.0\" encoding=\"utf-8\"?>\n<data success=\"1\" status=\"200\"><id>52bRT</id><title>相簿名稱</title><description>第一個相簿</description><datetime>1524985017</datetime><account>wrV9q42</account><link>http://127.0.0.1/RESTful/public/album/52bRT</link><images_count>1</images_count><images><item><id>65417357u6</id><title>大頭貼</title><description>我是描述</description><datetime>1524985185</datetime><width>1400</width><height>765</height><size>285813</size><link>http://127.0.0.1/RESTful/public/album/i/65417357u6.jpg</link></item></images></data>\n",
					"language": "xml",
					"rawDataType": "text",
					"previewType": "text",
					"searchResultScrolledTo": -1,
					"forceNoPretty": false,
					"write": true,
					"empty": false,
					"failed": false,
					"name": "get album",
					"id": "6d73fef6-2869-1b86-d185-d1981b1c8bf4",
					"request": {
						"url": "http://127.0.0.1/47th_demo/Model_f/public/album/52bRT",
						"pathVariables": {},
						"pathVariableData": [],
						"queryParams": [],
						"headerData": [
							{
								"key": "Authorization",
								"value": "Token r1AkG77",
								"description": "",
								"enabled": true,
								"warning": ""
							}
						],
						"headers": "Authorization: Token r1AkG77\n",
						"data": null,
						"method": "GET",
						"dataMode": "params"
					}
				}
			]
		}
	]
}